Analiza działalności firmy Space-U
…
Czy wyprawy round-trip są bardziej popularne w określonych miejscach?

Czy pojemność rakiet wpływa na punktualność?

Jak wynagrodzenia pracowników wiążą się z wyprawami?

Które galaktyki i układy są najbardziej dochodowe?

Czy odległość od Ziemi wpływa na organizację wypraw?

Jakie są trendy sezonowe w działalności firmy?

Najpopularniejsze wyprawy - koszty, przychody i opłacalność

# A tibble: 37 × 7
# Groups:   trip_type_id [37]
   trip_type_id trip_name        bookings_count total_costs total_revenue profit
          <int> <chr>                   <int64>       <dbl>         <dbl>  <dbl>
 1           21 Mission to Ursa…            107     795208.     18095148. 1.73e7
 2           31 Mission to Lunae             99    1570270.     35114697. 3.35e7
 3           27 Mission to Hest…             96    1424404.     28731963. 2.73e7
 4           19 Mission to Aulo…             91     639828.     14583322. 1.39e7
 5            8 Mission to Scae…             87    1453355.     33389298. 3.19e7
 6           32 Mission to Ops               84     449034.     10663573. 1.02e7
 7           28 Mission to Hype…             81    1181046.     25489729. 2.43e7
 8            1 Mission to Atro…             81    1876174.     31017773. 2.91e7
 9           20 Mission to Veni…             80     959392.     19949411. 1.90e7
10           16 Mission to Cael…             76     731736.     13718268  1.30e7
# ℹ 27 more rows
# ℹ 1 more variable: profit_margin <dbl>
…
- Mission to Aulonia : 13.94 mln USD zysku brutto

- Mission to Scaena : 31.94 mln USD zysku brutto

To pokazuje, że nie tylko popularność wpływa na opłacalność – ważna jest również struktura kosztów i cena jednostkowa. Co ciekawe, wiele wypraw z mniejszą liczbą rezerwacji (np.17 z 37) okazało się bardziej zyskownych niż te najbardziej uczęszczane.

Z drugiej strony, odnotowano kilka wypraw generujących straty – np. – ich koszty przewyższyły uzyskane przychody, a wskaźnik powrotu klientów po tych wyjazdach był zerowy. Wskazuje to jednoznacznie na potrzebę rewizji tych pozycji w ofercie.

Na wykresie średniego zysku na jedną wyprawę widać wyraźnie, że najlepiej radzą sobie misje związane z: Mission to Chione, Mission to Hydros, Mission to Solaria. Generują one największy zwrot z pojedynczej podróży, często kilkakrotnie wyższy niż wyprawy mniej opłacalne.

Opłacalność wypraw zależy nie tylko od liczby klientów, ale przede wszystkim od właściwego zarządzania kosztami i odpowiedniego ustalenia cen. Warto skupić się na dalszym rozwijaniu wypraw o wysokiej rentowności i ograniczyć te, które przynoszą straty.

Dynamika zmian liczby klientów w czasie

# A tibble: 36 × 7
# Groups:   trip_type [36]
   trip_type     planet total_income total_cost count profit avg_profit_per_trip
   <chr>         <chr>         <dbl>      <dbl> <int>  <dbl>               <dbl>
 1 Mission to U… Ursaea    57081226.  17780493.   358 3.93e7             109779.
 2 Mission to S… Scaena   121402349   31540349.   330 8.99e7             272309.
 3 Mission to L… Lunae    113556706.  33006117.   315 8.06e7             255716.
 4 Mission to O… Ops       34556508.  10524926.   311 2.40e7              77272.
 5 Mission to H… Hestia    85894149.  27412106.   300 5.85e7             194940.
 6 Mission to V… Venil…    73556591.  19312250.   280 5.42e7             193730.
 7 Mission to Z… Zephy…    47898404.  14079894.   276 3.38e7             122531.
 8 Mission to A… Aulon…    39542149.  14686000.   271 2.49e7              91720.
 9 Mission to N… Nausi…    33489523.  12429802.   254 2.11e7              82912.
10 Mission to C… Caelus    42203837.  13554176.   248 2.86e7             115523.
# ℹ 26 more rows
…
